<?xml version="1.0"?>
<robot xmlns:xacro="http://www.ros.org/wiki/xacro" name="lrauv">

  <xacro:arg name="namespace" default="lrauv"/>

  <xacro:include filename="$(find wind_config)/vehicle_model/lrauv.xacro"/>
  <xacro:lrauv_vehicle_def namespace="$(arg namespace)" use_sim="true"/>

</robot>
