<?xml version="1.0"?>
<robot xmlns:xacro="http://www.ros.org/wiki/xacro">

<!-- Don't call directly; link from lrauv_rt or lrauv_sim -->

<xacro:macro name="lrauv_vehicle_def" params="namespace use_sim"> 

  <!-- Common includes -->
  <xacro:include filename="$(find ds_sensors)/urdf/sensors.xacro"/>
  <xacro:if value="${use_sim}">
      <xacro:include filename="$(find ds_sim)/urdf/sensors_sim.xacro"/>
  </xacro:if>
  
  <xacro:include filename="$(find wind_config)/vehicle_model/common.xacro"/>
  <xacro:include filename="$(find wind_config)/vehicle_model/lrauv_mesh.xacro"/>
  <xacro:include filename="$(find wind_config)/vehicle_model/lrauv_dynamics.xacro"/>
  <xacro:include filename="$(find wind_config)/vehicle_model/lrauv_macros.xacro"/>


  <xacro:property name="wing_aft_x"  value="-1.0"/>
  <xacro:property name="wing_y"  value="0.09"/>
  <xacro:property name="wing_z"  value="0"/>

  <xacro:property name="dvl300_xyz"  value="-0.3 0.0 -0.3"/>
  <xacro:property name="dvl300_rpy"  value="0 0 ${-3*pi/4}"/>

  <xacro:property name="phins_xyz"  value="-0.6 0.000 0.0"/>
  <xacro:property name="phins_rpy"  value="0 0 0"/>

  <xacro:property name="paro_xyz"  value="0 0 0.1"/>
  <xacro:property name="paro_rpy"  value="0 0 0"/>

  <xacro:property name="xeos_gps_xyz"  value="-1.0 0 0.3"/>
  <xacro:property name="xeos_gps_rpy"  value="0 0 0"/>
  
  <link name="base_link">
    <xacro:mesh_with_bb_collision mesh_file="${body_mesh_file}" scale="${body_mesh_scale}"
                            min_x="${body_mesh_min_x}" max_x="${body_mesh_max_x}"
                            min_y="${body_mesh_min_y}" max_y="${body_mesh_max_y}"
                            min_z="${body_mesh_min_z}" max_z="${body_mesh_max_z}"
                            off_x="${body_mesh_off_x}" off_y="${body_mesh_off_y}" 
                            off_z="${body_mesh_off_z}" cad_to_body_r="${pi/2}"
                            cad_to_body_p="0" cad_to_body_y="${pi}"
                            reflect="1">
      <material name="yellow"/>
    </xacro:mesh_with_bb_collision>
    <collision>
      <origin xyz="0 0 0" rpy="0 ${pi/2} 0"/>
      <geometry>
        <cylinder radius="0.05" length="2.4"/>
      </geometry>
    </collision>
    
    <inertial>
      <mass value="${lrauv_mass}"/>
      <origin xyz="${lrauv_COM_xyz}"/>
      <inertia ixx="${lrauv_ixx}" ixy="${lrauv_ixy}" ixz="${lrauv_ixz}"
                                  iyy="${lrauv_iyy}" iyz="${lrauv_iyz}"
                                                     izz="${lrauv_izz}"/>
    </inertial>
    
  </link>

  <xacro:spar prefix="horizontal" wing_x="${wing_aft_x}" wing_y="${wing_y}" wing_z="${wing_z}"/>

  <xacro:vertical_spar prefix="vertical" wing_x="${wing_aft_x}" wing_y="${wing_y}" wing_z="${wing_z}"/>

  <xacro:propeller prefix="main" diameter="0.2" parent_link="base_link" xyz="-1.3 0 0" rpy="0 0 0" />

  <xacro:resonAUV3         name="reson"
                           parent_link="base_link"
                           xyz="0 0 0" rpy="0 ${pi/2} 0">
      <sim>
          <xacro:if value="${use_sim}">
            <xacro:resonAUV3_sim name="reson"
                                 parent_link="base_link"
                                 xyz="0 0 0" rpy="0 ${pi/2} 0"
                                 robot_namespace="${namespace}"
                                 topic="sensors/multibeam"/>
          </xacro:if>
      </sim>
  </xacro:resonAUV3>
  
  <!--
  <xacro:phins             name="phins"  
                           parent_link="base_link" 
                           xyz="${phins_xyz}" rpy="${phins_rpy}">
      <sim>
          <xacro:if value="${use_sim}">
            <xacro:phins_sim name="phins"
                             parent_link="base_link"
                             xyz="${phins_xyz}" rpy="${phins_rpy}"
                             robot_namespace="${namespace}"
                             ins_topic="sensors/phins/ins"
                             gyro_topic="sensors/phins/gyro"
                             att_topic="sensors/phins/attitude"/>
          </xacro:if>
      </sim>
  </xacro:phins>
  -->

  <!--
  <xacro:rdi_workhorse_300 name="dvl300" 
                           parent_link="base_link" 
                           xyz="${dvl300_xyz}" rpy="${dvl300_rpy}">
      <sim>
          <xacro:if value="${use_sim}">
              <xacro:rdi_workhorse_300_sim name="dvl300" 
                           parent_link="base_link" 
                           xyz="${dvl300_xyz}" rpy="${dvl300_rpy}"
                           robot_namespace="${namespace}"
                           dvl_topic="sensors/dvl300/dvl"
                           ranges_topic="sensors/ranges"/>
          </xacro:if>
      </sim>
  </xacro:rdi_workhorse_300>
  -->    

  <!-- Paro -->
  <!--
  <xacro:paro_digiquartz   name="paro"   
                           parent_link="base_link" 
                           xyz="${paro_xyz}" rpy="${paro_rpy}">
      <sim>
          <xacro:if value="${use_sim}">
              <xacro:paro_digiquartz_sim name="paro"   
                           parent_link="base_link" 
                           xyz="${paro_xyz}" rpy="${paro_rpy}"
                           robot_namespace="${namespace}" topic="sensors/paro/depth"/>
          </xacro:if>
      </sim>
  </xacro:paro_digiquartz>
  -->

  <!--
  <xacro:xeos_gps          name="xeos_gps"
                           parent_link="base_link" 
                           xyz="${xeos_gps_xyz}" rpy="${xeos_gps_rpy}">
      <sim>
          <xacro:if value="${use_sim}">
              <xacro:xeos_gps_sim name="xeos_gps"
                           parent_link="base_link" 
                           xyz="${xeos_gps_xyz}" rpy="${xeos_gps_rpy}"
                           robot_namespace="${namespace}" topic="sensors/xeos/gps"/>
              
          </xacro:if>
      </sim>
  </xacro:xeos_gps>
  -->

  <!-- GAZEBO PLUGINS -->
  <xacro:if value="${use_sim}">
    <gazebo>
      
      <!-- Publish joint states from Gazebo -->
        <plugin name="joint_state_publisher" filename="libdsros_jointstate_publisher.so">
          <robotNamespace>${namespace}</robotNamespace>
          <updateRate>10</updateRate>
          <invertSign>false</invertSign>
        </plugin>

        <!-- Publish nav state from Gazebo -->
        <!-- This may need checking tf_prefix and namespace -->
        <plugin name="nav_state_publisher" filename="libdsros_navstate_publisher.so">
          <robotNamespace>${namespace}</robotNamespace>
          <updateRate>10</updateRate>
          <navstate_topic>sim/nav/agg/state</navstate_topic>
          <ds_nav_msgs_navstate_topic>sim/nav/navstate</ds_nav_msgs_navstate_topic>
          <simpose_topic>sim/vehicle/true_pose</simpose_topic>
          <frame_id>map</frame_id>
          <base_link>${namespace}/base_link</base_link>
          <enable_tf>true</enable_tf>
          <enable_ds_nav_msgs_navstate>true</enable_ds_nav_msgs_navstate>
	  <projection epsg="26987"/>
        </plugin>

        <!-- TODO: Add actuators sections -->
        <plugin name="lrauv_dynamics" filename="liblrauvros_dynamics.so">
          <robotNamespace>${namespace}</robotNamespace>
          <root_topic>sim/vehicle</root_topic>
          <linkname>${namespace}/base_link</linkname>

	  <!-- try this out as a way to pass parameters to world plugin -->
	  <hydrodynamics method="body_derivatives" reference="base_link">
	    <!-- Xuu estimated based on published R100 value and scaling with volume -->
	    <Xuu>-19.3</Xuu>
	    <Yv>-500</Yv>
	    <Zw>-100</Zw>
	    <Kp>-100</Kp>
	    <Mq>-100</Mq>
	    <Nr>-100</Nr>
	    <zGB>0.02</zGB>  <!-- check sign convention in Fossen, or use Mtheta -->
	  </hydrodynamics>

	  <!-- @@@ call the joint "rudder_servo" -->
	  <hydrodynamics method="fin_to_body_derivatives" reference_body="base_link" reference_joint="vertical_servo">
	    <Kuudf>0.0</Kuudf>
	    <Muudf>0.0</Muudf>
	    <Nuudf>-100.0</Nuudf>
	  </hydrodynamics>

	  <!-- @@@ call the joint "sternplane_servo" -->
	  <hydrodynamics method="fin_to_body_derivatives" reference_body="base_link" reference_joint="horizontal_servo">
	    <Kuudf>0.0</Kuudf>
	    <Muudf>-100.0</Muudf>
	    <Nuudf>0.0</Nuudf>
	  </hydrodynamics>

	  <!-- propeller -->
	  <hydrodynamics method="propeller_to_body_derivatives" reference_body="base_link" reference_joint="main_propeller_hub">
	    <!-- Set to produce terminal velocities consistent with R600 data and estimated Xuu -->
            <Xrpm>0.0002</Xrpm>
	  </hydrodynamics>

	  <!-- whether this body is affected by currents, waves, wind, etc. -->
	  <!-- the actual modeling used is specified in the world file and the same for everyone -->
	  <ocean_effects>
	    <currents>1</currents>
	  </ocean_effects>

	  <!-- update a kml file with location for visualization in google earth -->
	  <gearth_interface>
	    <kmlfile>/var/log/auv.kml</kmlfile>
	    <interval_s>1.0</interval_s>
	    <name>AUV</name>
	  </gearth_interface>

	  <!-- spawn and delete bathymetry tiles as the vehicle moves -->
	  <bathymetry>
	    <interval_s>10.0</interval_s>
	  </bathymetry>

	  <!-- battery consumption -->
	  <battery>
	    <simulate>1</simulate>
	  </battery>
	  
        </plugin>


    </gazebo>
  </xacro:if>

  <xacro:include filename="$(find wind_config)/vehicle_model/lrauv.gazebo" />
  
</xacro:macro>
</robot>
