<?xml version="1.0"?>
<robot xmlns:xacro="http://www.ros.org/wiki/xacro" name="windturbine">

  <xacro:arg name="namespace" default="windturbine"/>

  <xacro:include filename="$(find wind_config)/vehicle_model/windturbine.xacro"/>
  <xacro:windturbine_vehicle_def namespace="$(arg namespace)" use_sim="true"/>

</robot>
