{
    "batchPolicy": {
        "timeoutInSeconds": 8000,
        "maxConcurrency": 2
    },
    "createSimulationJobRequests": [
        {
	    "outputLocation": {
                "s3Bucket": "nopp7",
                "s3Prefix": "Sim1"
            },
            "maxJobDurationInSeconds": 3000,
            "iamRole": "arn:aws:iam::517795548087:role/service-role/Nopp-robomaker-iam-role",
            "failureBehavior": "Fail",
            "simulationApplications": [
                {
                    "application": "arn:aws:robomaker:us-east-1:517795548087:simulation-application/nopp7-sim/1687273290228",
                    "launchConfig": {
			"streamUI": true,
                        "command": [
                            "roslaunch", "wind_config", "sim.launch", "start_x:=479232.63", "start_y:=56359.04", "start_z:=-1", "mission_id:=1"
                        ]
                    },
		    "useDefaultUploadConfigurations": false,
		    "uploadConfigurations": [
                        {
                            "name": "rosbags",
                            "path": "/var/log/**.bag",
                            "uploadBehavior": "UPLOAD_ROLLING_AUTO_REMOVE"
                        },
			{
                            "name": "gearth",
                            "path": "/var/log/**.kml",
                            "uploadBehavior": "UPLOAD_ROLLING_AUTO_REMOVE"
                        }
                    ]
                }
            ],
            "tags": { 
                "myRequestTagKey" : "Sim1" 
            },
	    "dataSources": [
                {
                    "name": "fvcom",
                    "s3Bucket": "nes-sim-data",
                    "s3Keys": [
                        "sim_resources/necofs_fvcom/NECOFS_GOM3_FORECAST.nc",
			"sim_resources/necofs_fvcom/NECOFS_FVCOM_OCEAN_MASSBAY_FORECAST.nc"
                    ],
                    "type": "File",
                    "destination": "/home/robomaker/datasources"
                },
                {
                    "name": "mission",
                    "s3Bucket": "nopp7",
                    "s3Keys": [
                        "Mission1/mission1_uuids.json",
                        "Mission1/mission1_origin.yaml"
                    ],
                    "type": "File",
                    "destination": "/home/robomaker/missions"
                },
                {
                    "name": "cond",
                    "s3Bucket": "nopp7",
                    "s3Keys": [
                        "Conditions/start_battery.txt",
                        "Conditions/start_time.txt"
                    ],
                    "type": "File",
                    "destination": "/home/robomaker/conditions"
                }
            ],
	    "compute": {
                "simulationUnitLimit": 15,
                "computeType": "CPU",
                "gpuUnitLimit": 0
            }
        },
        {
	    "outputLocation": {
                "s3Bucket": "nopp7",
                "s3Prefix": "Sim2"
            },
            "maxJobDurationInSeconds": 3000,
            "iamRole": "arn:aws:iam::517795548087:role/service-role/Nopp-robomaker-iam-role",
            "failureBehavior": "Fail",
            "simulationApplications": [
                {
                    "application": "arn:aws:robomaker:us-east-1:517795548087:simulation-application/nopp7-sim/1687273290228",
                    "launchConfig": {
			"streamUI": true,
                        "command": [
                            "roslaunch", "wind_config", "sim.launch", "start_x:=479232.63", "start_y:=56359.04", "start_z:=-1", "mission_id:=2"
                        ]
                    },
		    "useDefaultUploadConfigurations": false,
		    "uploadConfigurations": [
                        {
                            "name": "rosbags",
                            "path": "/var/log/**.bag",
                            "uploadBehavior": "UPLOAD_ROLLING_AUTO_REMOVE"
                        },
			{
                            "name": "gearth",
                            "path": "/var/log/**.kml",
                            "uploadBehavior": "UPLOAD_ROLLING_AUTO_REMOVE"
                        }
                    ]
                }
            ],
	    "tags": { 
                "myRequestTagKey" : "Sim2" 
            },
	    "dataSources": [
                {
                    "name": "fvcom",
                    "s3Bucket": "nes-sim-data",
                    "s3Keys": [
                        "sim_resources/necofs_fvcom/NECOFS_GOM3_FORECAST.nc",
			"sim_resources/necofs_fvcom/NECOFS_FVCOM_OCEAN_MASSBAY_FORECAST.nc"
                    ],
                    "type": "File",
                    "destination": "/home/robomaker/datasources"
                },
                {
                    "name": "mission",
                    "s3Bucket": "nopp7",
                    "s3Keys": [
                        "Mission2/mission2_uuids.json",
                        "Mission2/mission2_origin.yaml"
                    ],
                    "type": "File",
                    "destination": "/home/robomaker/missions"
                },
                {
                    "name": "cond",
                    "s3Bucket": "nopp7",
                    "s3Keys": [
                        "Conditions/start_battery.txt",
                        "Conditions/start_time.txt"
                    ],
                    "type": "File",
                    "destination": "/home/robomaker/conditions"
                }
            ],
	    "compute": {
                "simulationUnitLimit": 15,
                "computeType": "CPU",
                "gpuUnitLimit": 0
            }
        }
    ],
    "tags": { 
         "myBatchTagKey" : "Batch1" 
     }
}
